module gitlab.com/fredsar/getXMLFromGmail

go 1.17

require (
	golang.org/x/oauth2 v0.0.0-20211005180243-6b3c2da341f1
	google.golang.org/api v0.59.0
)

require (
	cloud.google.com/go v0.97.0 // indirect
	github.com/golang/groupcache v0.0.0-20200121045136-8c9f03a8e57e // indirect
	github.com/golang/protobuf v1.5.2 // indirect
	github.com/googleapis/gax-go/v2 v2.1.1 // indirect
	go.opencensus.io v0.23.0 // indirect
	golang.org/x/net v0.0.0-20210503060351-7fd8e65b6420 // indirect
	golang.org/x/sys v0.0.0-20211007075335-d3039528d8ac // indirect
	golang.org/x/text v0.3.6 // indirect
	google.golang.org/appengine v1.6.7 // indirect
	google.golang.org/genproto v0.0.0-20211008145708-270636b82663 // indirect
	google.golang.org/grpc v1.40.0 // indirect
	google.golang.org/protobuf v1.27.1 // indirect
)
